ID,Board Game,Minimum Bid,Seller Name,"Condition, included expansions, comments, etc.",BGG Link
10,Wit's End,10,Bugs,New,https://boardgamegeek.com/boardgame/1362/wits-end
11,Dominant Species,70,Bugs,Played Once,https://boardgamegeek.com/boardgame/62219/dominant-species
12,Munchkin,10,Bugs,Played 3x,https://boardgamegeek.com/boardgame/1927/munchkin
13,Meltdown 2020,20,Bugs,Played 3x,https://boardgamegeek.com/boardgame/104340/meltdown-2020
14,Acquire,40,Bugs,Good,https://boardgamegeek.com/boardgame/5/acquire
15,Ares Project,10,Elmer,Played 1x,https://boardgamegeek.com/boardgame/65534/ares-project
16,Axis and Allies,40,Foghorn,"Played once or twice, box corners slightly worn",https://boardgamegeek.com/boardgame/98/axis-allies
17,Abalone,10,Foghorn,"Played a few times, box is scuffed",https://boardgamegeek.com/boardgame/526/abalone
18,Balderdash,10,Foghorn,Played once or twice ,https://boardgamegeek.com/boardgame/163/balderdash
19,Diplomacy,20,Foghorn,"Like new, Bookcase size",https://boardgamegeek.com/boardgame/483/diplomacy
20,Civilization,20,Foghorn,"Played once or twice, Bookcase size, box is scuffed",https://boardgamegeek.com/boardgame/71/civilization
21,Oh-Wah-Ree,10,Foghorn,"Used, Bookcase size",https://boardgamegeek.com/boardgame/1970/oh-wah-ree
22,Robo Rally,40,Foghorn,"Original edition, box scuffed,
 most of the minis are painted (poorly)",https://boardgamegeek.com/boardgame/18/roborally
23,Titan,40,Foghorn,"Battlelands edition (pink box), Bookcase size, box scuffed,
missing most of the (non-custom 6-sided) dice",https://boardgamegeek.com/boardgame/103/titan
25,Coup Rebellion,15,Marvin,Played 2x,https://boardgamegeek.com/boardgame/148943/coup-rebellion-g54
26,King of Tokyo,20,Marvin,Played 3x,https://boardgamegeek.com/boardgame/70323/king-tokyo
27,alhambra card game,10,Hector,,https://boardgamegeek.com/boardgame/431/alhambra-card-game
28,One Deck Dungeon (P&P),0,Sam,"V1.0, Print & Play, no dice. http://asmadigames.com/ODD_PnP.pdf",https://www.boardgamegeek.com/boardgame/179275/one-deck-dungeon
29,1000 Drinking Games,0,Sam,Good,https://boardgamegeek.com/boardgame/31212/1000-drinking-games
30,What the F*ck,0,Sam,Good,https://boardgamegeek.com/boardgame/30306/what-fck
31,Wits & Wagers Family Edition,0,Sam,Good,https://www.boardgamegeek.com/boardgame/66588/wits-wagers-family
32,Tribond,5,Sam,Good,https://www.boardgamegeek.com/boardgame/5430/best-tribond
33,Origami Chess: Cats vs Dogs,10,Sam,"New, sealed.",https://www.amazon.com/Origami-Chess-Cats-Dogs-Books/dp/1626861714
34,Starfarers of Catan,25,Sam,Good,https://www.boardgamegeek.com/boardgame/1897/starfarers-catan
35,Hexahedron,5,Sam,"New. Box is damaged, but still sealed",https://www.boardgamegeek.com/boardgame/68946/hexahedron
36,Munchkin,10,Bugs,Played 2x,https://boardgamegeek.com/boardgame/1927/munchkin
37,Cities and Knights of Catan,20,Bugs,"expansion only, like new",https://boardgamegeek.com/boardgame/926/catan-cities-knights
38,Rock'em Sock'em Robots,10,Bugs,"Like new, played 6x",https://boardgamegeek.com/boardgame/7308/rock-em-sock-em-robots